# WaveFront *.obj file (generated by CINEMA 4D)

v -7.5 -3.75 15
v -7.5 3.75 15
v 7.5 -3.75 15
v 7.5 3.75 15
v 7.5 -3.75 -15
v 7.5 3.75 -15
v -7.5 -3.75 -15
v -7.5 3.75 -15
# 8 vertices

vn 0 0 1
vn 0 0 0
vn 1 0 0
vn 0 0 -1
vn 0 0 -1
vn -1 0 0
vn 0 1 0
vn 0 -1 0
# 8 normals

vt 0.25200000405312 0.25100004673004 0
vt 0.25200000405312 0.5009999871254 0
vt 0.50199997425079 0.5009999871254 0
vt 0.50199997425079 0.25100004673004 0
vt 0.75199997425079 0.5009999871254 0
vt 0.75199997425079 0.25100004673004 0
vt 1.00199997425079 0.5009999871254 0
vt 1.00199997425079 0.25100004673004 0
vt 0.00200000009499 0.25100004673004 0
vt 0.00200000009499 0.5009999871254 0
vt 0.25136607885361 0.50347983837128 0
vt 0.25136607885361 0.99652051925659 0
vt 0.50383406877518 0.99652051925659 0
vt 0.50383406877518 0.50347983837128 0
vt 0.25200000405312 0.00100004673004 0
vt 0.50199997425079 0.00100004673004 0
# 16 texture coordinates

o Krychle
usemtl Mat
f 4/3/1 2/2/1 1/1/1
f 6/5/3 4/3/3 3/4/3
f 8/7/4 6/5/5 5/6/4
f 2/2/6 8/10/6 7/9/6
f 6/13/7 8/12/7 2/11/7
f 3/4/8 1/1/8 7/15/8
f 3/4/1 4/3/1 1/1/1
f 5/6/3 6/5/3 3/4/3
f 7/8/4 8/7/4 5/6/4
f 1/1/6 2/2/6 7/9/6
f 4/14/7 6/13/7 2/11/7
f 5/16/8 3/4/8 7/15/8

