# WaveFront *.obj file (generated by CINEMA 4D)

v -2.5 4.47501039505005 0
v 2.5 4.47501039505005 0
v -2.5 3.22501015663147 0
v 2.5 3.22501015663147 0
v -2.5 3.24400043487549 -0.21706022322178
v 2.5 3.24400043487549 -0.21706022322178
v -2.5 3.3003945350647 -0.42752519249916
v 2.5 3.3003945350647 -0.42752519249916
v -2.5 3.39247846603394 -0.625
v 2.5 3.39247846603394 -0.625
v -2.5 3.51745462417603 -0.8034844994545
v 2.5 3.51745462417603 -0.8034844994545
v -2.5 3.67152571678162 -0.95755553245544
v 2.5 3.67152571678162 -0.95755553245544
v -2.5 3.85001015663147 -1.08253180980682
v 2.5 3.85001015663147 -1.08253180980682
v -2.5 4.04748487472534 -1.17461574077606
v 2.5 4.04748487472534 -1.17461574077606
v -2.5 4.25794982910156 -1.23100972175598
v 2.5 4.25794982910156 -1.23100972175598
v -2.5 4.47501039505005 -1.25
v 2.5 4.47501039505005 -1.25
v -2.5 4.69207048416138 -1.23100972175598
v 2.5 4.69207048416138 -1.23100972175598
v -2.5 4.9025354385376 -1.17461574077606
v 2.5 4.9025354385376 -1.17461574077606
v -2.5 5.10001039505005 -1.08253180980682
v 2.5 5.10001039505005 -1.08253180980682
v -2.5 5.2784948348999 -0.95755553245544
v 2.5 5.2784948348999 -0.95755553245544
v -2.5 5.43256568908691 -0.8034844994545
v 2.5 5.43256568908691 -0.8034844994545
v -2.5 5.557541847229 -0.625
v 2.5 5.557541847229 -0.625
v -2.5 5.64962577819824 -0.42752519249916
v 2.5 5.64962577819824 -0.42752519249916
v -2.5 5.70601987838745 -0.21706022322178
v 2.5 5.70601987838745 -0.21706022322178
v -2.5 5.72501039505005 -0
v 2.5 5.72501039505005 -0
v -2.5 5.70601987838745 0.21706022322178
v 2.5 5.70601987838745 0.21706022322178
v -2.5 5.64962577819824 0.42752519249916
v 2.5 5.64962577819824 0.42752519249916
v -2.5 5.557541847229 0.625
v 2.5 5.557541847229 0.625
v -2.5 5.43256568908691 0.8034844994545
v 2.5 5.43256568908691 0.8034844994545
v -2.5 5.2784948348999 0.95755553245544
v 2.5 5.2784948348999 0.95755553245544
v -2.5 5.10001039505005 1.08253180980682
v 2.5 5.10001039505005 1.08253180980682
v -2.5 4.9025354385376 1.17461574077606
v 2.5 4.9025354385376 1.17461574077606
v -2.5 4.69207048416138 1.23100972175598
v 2.5 4.69207048416138 1.23100972175598
v -2.5 4.47501039505005 1.25
v 2.5 4.47501039505005 1.25
v -2.5 4.25794982910156 1.23100972175598
v 2.5 4.25794982910156 1.23100972175598
v -2.5 4.04748487472534 1.17461574077606
v 2.5 4.04748487472534 1.17461574077606
v -2.5 3.85001015663147 1.08253180980682
v 2.5 3.85001015663147 1.08253180980682
v -2.5 3.67152571678162 0.95755553245544
v 2.5 3.67152571678162 0.95755553245544
v -2.5 3.51745462417603 0.8034844994545
v 2.5 3.51745462417603 0.8034844994545
v -2.5 3.39247846603394 0.625
v 2.5 3.39247846603394 0.625
v -2.5 3.3003945350647 0.42752519249916
v 2.5 3.3003945350647 0.42752519249916
v -2.5 3.24400043487549 0.21706022322178
v 2.5 3.24400043487549 0.21706022322178
v -0.5 -3.75 0.5
v -0.5 3.75 0.5
v 0.5 -3.75 0.5
v 0.5 3.75 0.5
v 0.5 -3.75 -0.5
v 0.5 3.75 -0.5
v -0.5 -3.75 -0.5
v -0.5 3.75 -0.5
# 82 vertices

vn 0 -1 0
vn 0 0 0
vn 0.99957501888275 0 -0.02915044687688
vn 0.99957501888275 0 0.02915044687688
vn 0.98945116996765 0 -0.14486673474312
vn 0 1 0
vn 0.97932726144791 0 -0.20228214561939
vn 0.94926333427429 0 -0.31448236107826
vn 0.92932325601578 0 -0.36926716566086
vn 0.88023269176483 0 -0.47454234957695
vn 0.85108208656311 0 -0.52503269910812
vn 0.78445637226105 0 -0.62018400430679
vn 0.74698126316071 0 -0.6648451089859
vn 0.6648451089859 0 -0.74698126316071
vn 0.62018400430679 0 -0.78445637226105
vn 0.52503269910812 0 -0.85108208656311
vn 0.47454234957695 0 -0.88023269176483
vn 0.36926716566086 0 -0.92932325601578
vn 0.31448236107826 0 -0.94926333427429
vn 0.20228214561939 0 -0.97932726144791
vn 0.14486673474312 0 -0.98945116996765
vn 0.02915044687688 0 -0.99957501888275
vn -0.02915044687688 0 -0.99957501888275
vn -0.14486673474312 0 -0.98945116996765
vn -0.20228214561939 0 -0.97932726144791
vn -0.31448236107826 0 -0.94926333427429
vn -0.36926716566086 0 -0.92932325601578
vn -0.47454234957695 0 -0.88023269176483
vn -0.52503269910812 0 -0.85108208656311
vn -0.62018400430679 0 -0.78445637226105
vn -0.6648451089859 0 -0.74698126316071
vn -0.74698126316071 0 -0.6648451089859
vn -0.78445637226105 0 -0.62018400430679
vn -0.85108208656311 0 -0.52503269910812
vn -0.88023269176483 0 -0.47454234957695
vn -0.92932325601578 0 -0.36926716566086
vn -0.94926333427429 0 -0.31448236107826
vn -0.97932726144791 0 -0.20228214561939
vn -0.98945116996765 0 -0.14486673474312
vn -0.99957501888275 0 -0.02915044687688
vn -0.99957501888275 0 0.02915044687688
vn -0.98945116996765 0 0.14486673474312
vn -0.97932726144791 0 0.20228214561939
vn -0.94926333427429 0 0.31448236107826
vn 0 1 0
vn -0.92932325601578 0 0.36926716566086
vn -0.88023269176483 0 0.47454234957695
vn -0.85108208656311 0 0.52503269910812
vn -0.78445637226105 0 0.62018400430679
vn -0.74698126316071 0 0.6648451089859
vn -0.6648451089859 0 0.74698126316071
vn -0.62018400430679 0 0.78445637226105
vn -0.52503269910812 0 0.85108208656311
vn -0.47454234957695 0 0.88023269176483
vn -0.36926716566086 0 0.92932325601578
vn -0.31448236107826 0 0.94926333427429
vn -0.20228214561939 0 0.97932726144791
vn -0.14486673474312 0 0.98945116996765
vn -0.02915044687688 0 0.99957501888275
vn 0.02915044687688 0 0.99957501888275
vn 0.14486673474312 0 0.98945116996765
vn 0.20228214561939 0 0.97932726144791
vn 0.31448236107826 0 0.94926333427429
vn 0 1 0
vn 0.36926716566086 0 0.92932325601578
vn 0.47454234957695 0 0.88023269176483
vn 0.52503269910812 0 0.85108208656311
vn 0.62018400430679 0 0.78445637226105
vn 0.6648451089859 0 0.74698126316071
vn 0.74698126316071 0 0.6648451089859
vn 0.78445637226105 0 0.62018400430679
vn 0.85108208656311 0 0.52503269910812
vn 0.88023269176483 0 0.47454234957695
vn 0.92932325601578 0 0.36926716566086
vn 0.94926333427429 0 0.31448236107826
vn 0.97932726144791 0 0.20228214561939
vn 0.98945116996765 0 0.14486673474312
vn 0 0 1
vn 0 0 -1
vn 0 -1 0
vn -1 0 0
vn 1 0 0
vn 0 -1 0
vn 1 0 0
# 84 normals

vt 0.19800081849098 0.71595054864883 0
vt 0.39045310020447 0.71595054864883 0
vt 0.3875293135643 0.67423439025879 0
vt 0 1 0
vt 0.01984294503927 0.7418692111969 0
vt 0.97878664731979 0.735027551651 0
vt 0.97802251577377 0.67031943798065 0
vt 0.019078373909 0.67716073989868 0
vt 0.9847000837326 0.708611369133 0
vt 0.77678763866425 0.708611369133 0
vt 0.98154157400131 0.75446528196335 0
vt 0.64670604467392 0.375 0
vt 0.37884676456451 0.6337856054306 0
vt 0.04884995520115 0.977314889431 0
vt 0.95659267902374 0.96445530653 0
vt 0.95654290914536 0.9561180472374 0
vt 0.04880062490702 0.9689769744873 0
vt 0.97216153144836 0.79892611503601 0
vt 0.93602603673935 0.375 0
vt 0.36466929316521 0.59583336114883 0
vt 0.95646196603775 0.94250363111496 0
vt 0.04871923848987 0.95536321401596 0
vt 0.95684480667114 0.84064263105392 0
vt 0.93845570087433 0.375 0
vt 0.3454278409481 0.56153100728989 0
vt 0.95635199546814 0.92402684688568 0
vt 0.04860973730683 0.93688577413559 0
vt 0.93605798482895 0.87834751605988 0
vt 0.94175320863724 0.375 0
vt 0.32170683145523 0.53192031383514 0
vt 0.95621651411057 0.90124821662903 0
vt 0.04847381263971 0.91410714387894 0
vt 0.91043162345886 0.91089498996735 0
vt 0.94581842422485 0.375 0
vt 0.29422697424889 0.50790160894394 0
vt 0.95605981349945 0.8748596906662 0
vt 0.04831710085273 0.8877192735672 0
vt 0.88074421882629 0.93729621171951 0
vt 0.95052778720856 0.375 0
vt 0.26382347941399 0.49020409584045 0
vt 0.95588576793671 0.84566432237625 0
vt 0.0481430888176 0.85852390527725 0
vt 0.84789836406708 0.95674896240234 0
vt 0.95573818683624 0.375 0
vt 0.23141975700855 0.47936582565308 0
vt 0.95570093393326 0.814548432827 0
vt 0.04795825853944 0.82740795612335 0
vt 0.81289124488831 0.9686621427536 0
vt 0.96129131317139 0.375 0
vt 0.19800081849098 0.47571623325348 0
vt 0.95551007986069 0.78245723247528 0
vt 0.04776737466455 0.79531681537628 0
vt 0.77678763866425 0.97267383337021 0
vt 0.96701848506927 0.375 0
vt 0.16458187997341 0.47936582565308 0
vt 0.95531916618347 0.75036609172821 0
vt 0.04757648706436 0.76322567462921 0
vt 0.74068415164948 0.9686621427536 0
vt 0.97274565696716 0.375 0
vt 0.13217833638191 0.49020409584045 0
vt 0.95513391494751 0.71925014257431 0
vt 0.04739120602608 0.73210906982422 0
vt 0.70567774772644 0.95674896240234 0
vt 0.97829884290695 0.375 0
vt 0.10177484899759 0.50790160894394 0
vt 0.95496028661728 0.69005405902863 0
vt 0.04721764475107 0.70291364192963 0
vt 0.67283189296722 0.93729621171951 0
vt 0.98350924253464 0.375 0
vt 0.07429497689009 0.53192031383514 0
vt 0.95480316877365 0.66366618871689 0
vt 0.04706050828099 0.67652577161789 0
vt 0.64314448833466 0.91089498996735 0
vt 0.98821860551834 0.375 0
vt 0.05057398229837 0.56153100728989 0
vt 0.95466768741608 0.64088749885559 0
vt 0.046925034374 0.65374714136124 0
vt 0.61751812696457 0.87834751605988 0
vt 0.99228382110596 0.375 0
vt 0.03133233636618 0.59583336114883 0
vt 0.95455771684647 0.62241077423096 0
vt 0.04681508243084 0.63526970148087 0
vt 0.59673058986664 0.84064263105392 0
vt 0.99558132886887 0.375 0
vt 0.01715504191816 0.6337856054306 0
vt 0.95447677373886 0.60879635810852 0
vt 0.04673412069678 0.62165594100952 0
vt 0.58141458034515 0.79892611503601 0
vt 0.99801099300385 0.375 0
vt 0.00847249291837 0.67423439025879 0
vt 0.95442742109299 0.60045909881592 0
vt 0.04668479412794 0.61331802606583 0
vt 0.57203453779221 0.75446528196335 0
vt 0.99949896335602 0.375 0
vt 0.00554869184271 0.71595054864883 0
vt 0.02121707051992 0.65648007392883 0
vt 0.98019778728485 0.65858221054077 0
vt 0.98043239116669 0.59387123584747 0
vt 0.02145211026073 0.5917694568634 0
vt 0.56887531280518 0.708611369133 0
vt 0.125 0.375 0
vt 0.00847249291837 0.75766694545746 0
vt 0.98066741228104 0.52916061878204 0
vt 0.02168669551611 0.5270584821701 0
vt 0.57203453779221 0.66275751590729 0
vt 0.1467060148716 0.375 0
vt 0.01715504191816 0.79811549186707 0
vt 0.00870204437524 0.86743485927582 0
vt 0.9823232293129 0.87566334009171 0
vt 0.98235106468201 0.86550331115723 0
vt 0.0087298983708 0.85727524757385 0
vt 0.58141458034515 0.61829674243927 0
vt 0.25198903679848 0.375 0
vt 0.03133233636618 0.83606767654419 0
vt 0.98239707946777 0.84891366958618 0
vt 0.00877539720386 0.84068512916565 0
vt 0.59673058986664 0.57658016681671 0
vt 0.25441867113113 0.375 0
vt 0.05057398229837 0.87037026882172 0
vt 0.98245882987976 0.82639783620834 0
vt 0.00883714389056 0.81816977262497 0
vt 0.61751812696457 0.53887534141541 0
vt 0.25771620869637 0.375 0
vt 0.07429497689009 0.89998078346252 0
vt 0.98253494501114 0.79864084720612 0
vt 0.00891374889761 0.79041236639023 0
vt 0.64314448833466 0.50632786750793 0
vt 0.26178139448166 0.375 0
vt 0.10177484899759 0.92399966716766 0
vt 0.98262363672256 0.76648515462875 0
vt 0.00900195818394 0.75825667381287 0
vt 0.67283189296722 0.47992658615112 0
vt 0.26649075746536 0.375 0
vt 0.13217833638191 0.94169694185257 0
vt 0.98272109031677 0.73090833425522 0
vt 0.00909991841763 0.72267979383469 0
vt 0.70567774772644 0.46047377586365 0
vt 0.27170115709305 0.375 0
vt 0.16458187997341 0.95253521203995 0
vt 0.98282557725906 0.692990899086 0
vt 0.0092039136216 0.68476235866547 0
vt 0.74068415164948 0.44856059551239 0
vt 0.27725431323051 0.375 0
vt 0.19800081849098 0.95618486404419 0
vt 0.98293280601501 0.65388542413712 0
vt 0.00931162294 0.64565736055374 0
vt 0.77678763866425 0.44454884529114 0
vt 0.2829814851284 0.375 0
vt 0.23141975700855 0.95253521203995 0
vt 0.98304051160812 0.61478000879288 0
vt 0.00941886845976 0.60655188560486 0
vt 0.81289124488831 0.44856059551239 0
vt 0.28870865702629 0.375 0
vt 0.26382347941399 0.94169694185257 0
vt 0.98314499855042 0.57686257362366 0
vt 0.00952332746238 0.56863445043564 0
vt 0.84789836406708 0.46047377586365 0
vt 0.29426184296608 0.375 0
vt 0.29422697424889 0.92399966716766 0
vt 0.98324245214462 0.54128569364548 0
vt 0.00962128583342 0.5330576300621 0
vt 0.88074421882629 0.47992658615112 0
vt 0.29947224259377 0.375 0
vt 0.32170683145523 0.89998078346252 0
vt 0.98333114385605 0.50913000106812 0
vt 0.0097094969824 0.50090193748474 0
vt 0.91043162345886 0.50632786750793 0
vt 0.30418160557747 0.375 0
vt 0.3454278409481 0.87037026882172 0
vt 0.98340731859207 0.48137307167053 0
vt 0.0097861001268 0.47314500808716 0
vt 0.93605798482895 0.53887534141541 0
vt 0.30824679136276 0.375 0
vt 0.36466929316521 0.83606767654419 0
vt 0.98346906900406 0.45885765552521 0
vt 0.0098478468135 0.45062923431396 0
vt 0.95684480667114 0.57658016681671 0
vt 0.31154429912567 0.375 0
vt 0.37884676456451 0.79811549186707 0
vt 0.98351502418518 0.44226765632629 0
vt 0.00989334564656 0.43403959274292 0
vt 0.97216153144836 0.61829674243927 0
vt 0.31397396326065 0.375 0
vt 0.3875293135643 0.75766694545746 0
vt 0.98354285955429 0.43210792541504 0
vt 0.00992120150477 0.4238795042038 0
vt 0.98154157400131 0.66275751590729 0
vt 0.31546193361282 0.375 0
vt 0.02060705795884 0.80657768249512 0
vt 0.97955119609833 0.79973602294922 0
vt 0.625 0.375 0
vt 0.51583224534988 0.16420710086823 0
vt 0.31794330477715 0.16420710086823 0
vt 0.31794330477715 0.21420705318451 0
vt 0.51583224534988 0.21420705318451 0
vt 0.27937316894531 0.23892557621002 0
vt 0.08148418366909 0.23892557621002 0
vt 0.08148418366909 0.33892560005188 0
vt 0.27937316894531 0.33892560005188 0
vt 0.08963917195797 0.21347296237946 0
vt 0.28752815723419 0.21347296237946 0
vt 0.28752815723419 0.16347289085388 0
vt 0.08963917195797 0.16347289085388 0
vt 0.28402319550514 0.01681983470917 0
vt 0.0861342176795 0.01681983470917 0
vt 0.0861342176795 0.11681985855103 0
vt 0.28402319550514 0.11681985855103 0
vt 0.65658962726593 0.27602195739746 0
vt 0.55658960342407 0.27602195739746 0
vt 0.55658960342407 0.32602190971375 0
vt 0.65658962726593 0.32602190971375 0
vt 0.65629899501801 0.03900516033173 0
vt 0.55629897117615 0.03900516033173 0
vt 0.55629897117615 0.08900511264801 0
vt 0.65629899501801 0.08900511264801 0
# 215 texture coordinates

o Válec.1
usemtl Mat
f 5/3/1 3/2/1 1/1/1
f 6/7/5 4/6/4 3/5/3
f 6/11/6 2/10/6 4/9/6
f 7/13/1 5/3/1 1/1/1
f 8/16/8 6/15/5 5/14/7
f 8/18/6 2/10/6 6/11/6
f 9/20/1 7/13/1 1/1/1
f 10/21/10 8/16/8 7/17/9
f 10/23/6 2/10/6 8/18/6
f 11/25/1 9/20/1 1/1/1
f 12/26/12 10/21/10 9/22/11
f 12/28/6 2/10/6 10/23/6
f 13/30/1 11/25/1 1/1/1
f 14/31/14 12/26/12 11/27/13
f 14/33/6 2/10/6 12/28/6
f 15/35/1 13/30/1 1/1/1
f 16/36/16 14/31/14 13/32/15
f 16/38/6 2/10/6 14/33/6
f 17/40/1 15/35/1 1/1/1
f 18/41/18 16/36/16 15/37/17
f 18/43/6 2/10/6 16/38/6
f 19/45/1 17/40/1 1/1/1
f 20/46/20 18/41/18 17/42/19
f 20/48/6 2/10/6 18/43/6
f 21/50/1 19/45/1 1/1/1
f 22/51/22 20/46/20 19/47/21
f 22/53/6 2/10/6 20/48/6
f 23/55/1 21/50/1 1/1/1
f 24/56/24 22/51/22 21/52/23
f 24/58/6 2/10/6 22/53/6
f 25/60/1 23/55/1 1/1/1
f 26/61/26 24/56/24 23/57/25
f 26/63/6 2/10/6 24/58/6
f 27/65/1 25/60/1 1/1/1
f 28/66/28 26/61/26 25/62/27
f 28/68/6 2/10/6 26/63/6
f 29/70/1 27/65/1 1/1/1
f 30/71/30 28/66/28 27/67/29
f 30/73/6 2/10/6 28/68/6
f 31/75/1 29/70/1 1/1/1
f 32/76/32 30/71/30 29/72/31
f 32/78/6 2/10/6 30/73/6
f 33/80/1 31/75/1 1/1/1
f 34/81/34 32/76/32 31/77/33
f 34/83/6 2/10/6 32/78/6
f 35/85/1 33/80/1 1/1/1
f 36/86/36 34/81/34 33/82/35
f 36/88/6 2/10/6 34/83/6
f 37/90/1 35/85/1 1/1/1
f 38/91/38 36/86/36 35/87/37
f 38/93/6 2/10/6 36/88/6
f 39/95/1 37/90/1 1/1/1
f 40/98/40 38/97/38 37/96/39
f 40/100/6 2/10/6 38/93/6
f 41/102/1 39/95/1 1/1/1
f 42/103/42 40/98/40 39/99/41
f 42/105/6 2/10/6 40/100/6
f 43/107/1 41/102/1 1/1/1
f 44/110/44 42/109/42 41/108/43
f 44/112/45 2/10/6 42/105/6
f 45/114/1 43/107/1 1/1/1
f 46/115/47 44/110/44 43/111/46
f 46/117/45 2/10/6 44/112/45
f 47/119/1 45/114/1 1/1/1
f 48/120/49 46/115/47 45/116/48
f 48/122/45 2/10/6 46/117/45
f 49/124/1 47/119/1 1/1/1
f 50/125/51 48/120/49 47/121/50
f 50/127/45 2/10/6 48/122/45
f 51/129/1 49/124/1 1/1/1
f 52/130/53 50/125/51 49/126/52
f 52/132/45 2/10/6 50/127/45
f 53/134/1 51/129/1 1/1/1
f 54/135/55 52/130/53 51/131/54
f 54/137/45 2/10/6 52/132/45
f 55/139/1 53/134/1 1/1/1
f 56/140/57 54/135/55 53/136/56
f 56/142/45 2/10/6 54/137/45
f 57/144/1 55/139/1 1/1/1
f 58/145/59 56/140/57 55/141/58
f 58/147/6 2/10/6 56/142/45
f 59/149/1 57/144/1 1/1/1
f 60/150/61 58/145/59 57/146/60
f 60/152/6 2/10/6 58/147/6
f 61/154/1 59/149/1 1/1/1
f 62/155/63 60/150/61 59/151/62
f 62/157/64 2/10/6 60/152/6
f 63/159/1 61/154/1 1/1/1
f 64/160/66 62/155/63 61/156/65
f 64/162/64 2/10/6 62/157/64
f 65/164/1 63/159/1 1/1/1
f 66/165/68 64/160/66 63/161/67
f 66/167/64 2/10/6 64/162/64
f 67/169/1 65/164/1 1/1/1
f 68/170/70 66/165/68 65/166/69
f 68/172/64 2/10/6 66/167/64
f 69/174/1 67/169/1 1/1/1
f 70/175/72 68/170/70 67/171/71
f 70/177/64 2/10/6 68/172/64
f 71/179/1 69/174/1 1/1/1
f 72/180/74 70/175/72 69/176/73
f 72/182/64 2/10/6 70/177/64
f 73/184/1 71/179/1 1/1/1
f 74/185/76 72/180/74 71/181/75
f 74/187/64 2/10/6 72/182/64
f 3/2/1 73/184/1 1/1/1
f 4/6/4 74/190/76 73/189/77
f 4/9/6 2/10/6 74/187/64
f 78/194/78 76/193/78 75/192/78
f 80/198/6 78/197/6 77/196/6
f 82/202/79 80/201/79 79/200/79
f 76/206/1 82/205/80 81/204/1
f 80/210/81 82/209/81 76/208/81
f 77/214/82 75/213/82 81/212/82
f 5/8/7 6/7/5 3/5/3
f 7/17/9 8/16/8 5/14/7
f 9/22/11 10/21/10 7/17/9
f 11/27/13 12/26/12 9/22/11
f 13/32/15 14/31/14 11/27/13
f 15/37/17 16/36/16 13/32/15
f 17/42/19 18/41/18 15/37/17
f 19/47/21 20/46/20 17/42/19
f 21/52/23 22/51/22 19/47/21
f 23/57/25 24/56/24 21/52/23
f 25/62/27 26/61/26 23/57/25
f 27/67/29 28/66/28 25/62/27
f 29/72/31 30/71/30 27/67/29
f 31/77/33 32/76/32 29/72/31
f 33/82/35 34/81/34 31/77/33
f 35/87/37 36/86/36 33/82/35
f 37/92/39 38/91/38 35/87/37
f 39/99/41 40/98/40 37/96/39
f 41/104/43 42/103/42 39/99/41
f 43/111/46 44/110/44 41/108/43
f 45/116/48 46/115/47 43/111/46
f 47/121/50 48/120/49 45/116/48
f 49/126/52 50/125/51 47/121/50
f 51/131/54 52/130/53 49/126/52
f 53/136/56 54/135/55 51/131/54
f 55/141/58 56/140/57 53/136/56
f 57/146/60 58/145/59 55/141/58
f 59/151/62 60/150/61 57/146/60
f 61/156/65 62/155/63 59/151/62
f 63/161/67 64/160/66 61/156/65
f 65/166/69 66/165/68 63/161/67
f 67/171/71 68/170/70 65/166/69
f 69/176/73 70/175/72 67/171/71
f 71/181/75 72/180/74 69/176/73
f 73/186/77 74/185/76 71/181/75
f 3/5/3 4/6/4 73/189/77
f 77/195/78 78/194/78 75/192/78
f 79/199/64 80/198/6 77/196/6
f 81/203/79 82/202/79 79/200/79
f 75/207/83 76/206/1 81/204/1
f 78/211/81 80/210/81 76/208/81
f 79/215/84 77/214/82 81/212/82

